{
  "id": 2238,
  "text": "Huhu安（充电）",
  "icon": "https://i0.hdslb.com/bfs/garb/34a2ec9697d8210ff7c5ce896de63de8260ed08d.png",
  "emote": [
    {
      "text": "UPOWER_284194350_哭了",
      "url": "https://i0.hdslb.com/bfs/garb/7aad48ab9dcfa656c6968a98233567877bf7edd4.png"
    },
    {
      "text": "UPOWER_284194350_更新啦",
      "url": "https://i0.hdslb.com/bfs/garb/89c1c18e50dc352d69c86aa92e9ed47a097952cb.png"
    },
    {
      "text": "UPOWER_284194350_疑惑",
      "url": "https://i0.hdslb.com/bfs/garb/5c3510a26bd402ddf533c0227cda3183d7693c08.png"
    },
    {
      "text": "UPOWER_284194350_憨憨",
      "url": "https://i0.hdslb.com/bfs/garb/c7e03a85d2e36c7465ec1b6eea1862afe24ea855.png"
    },
    {
      "text": "UPOWER_284194350_冲啊",
      "url": "https://i0.hdslb.com/bfs/garb/2ac66194915f3c04d99aa222584e84ad50a3bc86.png"
    },
    {
      "text": "UPOWER_284194350_哈哈哈",
      "url": "https://i0.hdslb.com/bfs/garb/13372124759f31d199cb7e9c72c204de79c91a33.png"
    },
    {
      "text": "UPOWER_284194350_爱你哦",
      "url": "https://i0.hdslb.com/bfs/garb/cdc56f82b55addf673862eeac85c073bee457715.png"
    },
    {
      "text": "UPOWER_284194350_不忍直视",
      "url": "https://i0.hdslb.com/bfs/garb/de47da5929237c752cc59678c6834cbfac24aa86.png"
    },
    {
      "text": "UPOWER_284194350_受不了了",
      "url": "https://i0.hdslb.com/bfs/garb/a2cbdf221cfe1c2ffc9a212ebb094a43f8f469d7.png"
    },
    {
      "text": "UPOWER_284194350_哟西",
      "url": "https://i0.hdslb.com/bfs/garb/a70a0d0aacf8544d7cebfa0759c155e33c0f7c59.png"
    },
    {
      "text": "UPOWER_284194350_让我看看",
      "url": "https://i0.hdslb.com/bfs/garb/c8efd1487ef8be8e16234716a2c8a1d51c9ba0bd.png"
    },
    {
      "text": "UPOWER_284194350_切",
      "url": "https://i0.hdslb.com/bfs/garb/ff5bc46201a60bd2fa35dca395e905eed26a8d05.png"
    },
    {
      "text": "UPOWER_284194350_看我眼神",
      "url": "https://i0.hdslb.com/bfs/garb/d7005cbe64442046c171dc0fd412d2e3d7dc198e.png"
    },
    {
      "text": "UPOWER_284194350_憋笑呢",
      "url": "https://i0.hdslb.com/bfs/garb/0f04ebb6eea7deb98df7515d5789029a5cd40e73.png"
    },
    {
      "text": "UPOWER_284194350_呵呵",
      "url": "https://i0.hdslb.com/bfs/garb/0424a737a55663b89aff26f0659738deb74111cb.png"
    },
    {
      "text": "UPOWER_284194350_尬住了",
      "url": "https://i0.hdslb.com/bfs/garb/c10e59129bffaedcf5c06db78926e150383d57fa.png"
    },
    {
      "text": "UPOWER_284194350_偷窥",
      "url": "https://i0.hdslb.com/bfs/garb/dca0c0eb91be7256b4836d6dab8818e33ab5a55c.png"
    },
    {
      "text": "UPOWER_284194350_比心心",
      "url": "https://i0.hdslb.com/bfs/garb/e1171f54dfa1b35ffe65afa05278a43e73dbacbc.png"
    },
    {
      "text": "UPOWER_284194350_气鼓鼓",
      "url": "https://i0.hdslb.com/bfs/garb/0ea06e9a079c59b49af682d2837d400fe6d754b1.png"
    }
  ]
}