{
  "id": 855,
  "text": "塞满Sama（充电）",
  "icon": "https://i0.hdslb.com/bfs/garb/0946ef4586ce1f868d99a73d13acf22b0990f831.png",
  "emote": [
    {
      "text": "UPOWER_410588425_打卡",
      "url": "https://i0.hdslb.com/bfs/garb/bfc0991fa7fdbc2e116751c861b1e4679e5484a0.png"
    },
    {
      "text": "UPOWER_410588425_打call",
      "url": "https://i0.hdslb.com/bfs/garb/6f2d174147967b3dbd0ea7d6a4d64ba7283f16dd.png"
    },
    {
      "text": "UPOWER_410588425_老规矩",
      "url": "https://i0.hdslb.com/bfs/garb/25a3d510065912ebc2fa8cad14a14f7902b58703.png"
    },
    {
      "text": "UPOWER_410588425_鸽了",
      "url": "https://i0.hdslb.com/bfs/garb/ff7d747c2de25c6bf2b169339b1162bb9c6d587f.png"
    },
    {
      "text": "UPOWER_410588425_白嫖",
      "url": "https://i0.hdslb.com/bfs/garb/1c9dc79f9b9cd4c8a4ef77437c35e04aa35e0551.png"
    },
    {
      "text": "UPOWER_410588425_都在这",
      "url": "https://i0.hdslb.com/bfs/garb/d5ec7dac979ec2c3ff5940e603528e974929c6af.png"
    },
    {
      "text": "UPOWER_410588425_狠狠投币",
      "url": "https://i0.hdslb.com/bfs/garb/3ba79409fbb42bcf225ca24678e3ac6af99d6299.png"
    },
    {
      "text": "UPOWER_410588425_一键三连",
      "url": "https://i0.hdslb.com/bfs/garb/2c11ab4a56c5b7c1f5013ac87c787850091c065f.png"
    },
    {
      "text": "UPOWER_410588425_开啵啦",
      "url": "https://i0.hdslb.com/bfs/garb/8e0417107ce53058b97cfecbd070c7a51cc101c4.png"
    },
    {
      "text": "UPOWER_410588425_注意身体",
      "url": "https://i0.hdslb.com/bfs/garb/47930c6fab3065d3d7741f7c61d3e2be4a9f169f.png"
    }
  ]
}